﻿{
  "$schema": "http://json.schemastore.org/launchsettings.json",
  "iisSettings": {
    "windowsAuthentication": false,
    "anonymousAuthentication": true,
    "iisExpress": {
      "applicationUrl": "http://localhost:55589",
      "sslPort": 44311
    }
  },
  "profiles": {
    "IIS Express": {
      "commandName": "IISExpress",
      "launchBrowser": true,
      "launchUrl": "api/DeliveryDate?ProductIds=2&ProductIds=3&orderDate=2018-01-29T00:00:00",
      "environmentVariables": {
        "ASPNETCORE_ENVIRONMENT": "Development"
      }
    },
    "Agrovista_.NET_Tech_Test": {
      "commandName": "Project",
      "launchBrowser": true,
      "launchUrl": "api/DeliveryDate?ProductIds=2&ProductIds=3&orderDate=2018-01-29T00:00:00",
      "applicationUrl": "https://localhost:5001;http://localhost:5000",
      "environmentVariables": {
        "ASPNETCORE_ENVIRONMENT": "Development"
      }
    }
  }
}
